<svg width="21" height="20" viewBox="0 0 21 20" fill="none" xmlns="http://www.w3.org/2000/svg">
<path d="M10.5 5.19298C7.729 5.19298 5.49267 7.33986 5.49267 10C5.49267 12.6602 7.729 14.807 10.5 14.807C13.271 14.807 15.5073 12.6602 15.5073 10C15.5073 7.33986 13.271 5.19298 10.5 5.19298ZM10.5 13.1242C8.708 13.1242 7.2456 11.7203 7.2456 10C7.2456 8.2797 8.708 6.8758 10.5 6.8758C12.292 6.8758 13.7544 8.2797 13.7544 10C13.7544 11.7203 12.292 13.1242 10.5 13.1242ZM15.7124 3.87579C15.0654 3.87579 14.543 4.37736 14.543 4.99845C14.543 5.61954 15.0654 6.12111 15.7124 6.12111C16.3594 6.12111 16.8818 5.62189 16.8818 4.99845C16.882 4.85097 16.8519 4.7049 16.7932 4.56861C16.7345 4.43232 16.6484 4.30849 16.5397 4.2042C16.4311 4.09992 16.3021 4.01723 16.1601 3.96088C16.0182 3.90452 15.866 3.87561 15.7124 3.87579ZM20.2607 10C20.2607 8.70626 20.2729 7.42423 20.1973 6.13283C20.1216 4.63283 19.7651 3.30158 18.6226 2.2047C17.4775 1.10548 16.0933 0.765639 14.5308 0.692982C13.1831 0.620326 11.8476 0.632045 10.5024 0.632045C9.15478 0.632045 7.81933 0.620326 6.47411 0.692982C4.91161 0.765639 3.5249 1.10783 2.38232 2.2047C1.2373 3.30392 0.883295 4.63283 0.807611 6.13283C0.731927 7.42658 0.744134 8.70861 0.744134 10C0.744134 11.2914 0.731927 12.5758 0.807611 13.8672C0.883295 15.3672 1.23974 16.6985 2.38232 17.7953C3.52734 18.8945 4.91161 19.2344 6.47411 19.307C7.82177 19.3797 9.15722 19.368 10.5024 19.368C11.8501 19.368 13.1855 19.3797 14.5308 19.307C16.0933 19.2344 17.48 18.8922 18.6226 17.7953C19.7676 16.6961 20.1216 15.3672 20.1973 13.8672C20.2754 12.5758 20.2607 11.2938 20.2607 10ZM18.1123 15.5266C17.9341 15.9531 17.7192 16.2719 17.375 16.6C17.0308 16.9305 16.7012 17.1367 16.2568 17.3078C14.9727 17.7977 11.9233 17.6875 10.5 17.6875C9.07665 17.6875 6.0249 17.7977 4.74072 17.3102C4.29638 17.1391 3.96435 16.9328 3.62255 16.6024C3.27831 16.2719 3.06347 15.9555 2.88525 15.5289C2.37744 14.2938 2.49218 11.3664 2.49218 10C2.49218 8.63361 2.37744 5.70392 2.88525 4.47111C3.06347 4.04454 3.27831 3.7258 3.62255 3.39767C3.96679 3.06955 4.29638 2.86095 4.74072 2.68986C6.0249 2.20236 9.07665 2.31251 10.5 2.31251C11.9233 2.31251 14.9751 2.20236 16.2593 2.68986C16.7036 2.86095 17.0356 3.0672 17.3774 3.39767C17.7217 3.72814 17.9365 4.04454 18.1147 4.47111C18.6226 5.70392 18.5078 8.63361 18.5078 10C18.5078 11.3664 18.6226 14.2938 18.1123 15.5266Z" fill="#E8B8B8"/>
</svg>
