<svg width="16" height="18" viewBox="0 0 16 18" fill="none" xmlns="http://www.w3.org/2000/svg">
<path d="M0.697266 9.42383C0.626953 9.6582 0.591798 9.90039 0.591798 10.1465C0.591798 10.6992 0.773438 11.2305 1.10156 11.6641C1.03125 11.8984 0.996095 12.1406 0.996095 12.3867C0.996095 12.9395 1.17774 13.4707 1.50586 13.9043C1.43555 14.1387 1.40039 14.3809 1.40039 14.627C1.40039 15.6348 2 16.543 2.92969 16.9395C3.0931 17.0099 3.26932 17.0458 3.44727 17.0449L15.1875 17.0449C15.5332 17.0449 15.8125 16.7656 15.8125 16.4199L15.8125 9.31054C15.8125 8.96484 15.5332 8.68554 15.1875 8.68555L12.6621 8.68555L10.9863 2.61523C10.7168 1.63672 9.81836 0.953122 8.80273 0.953122C8.22266 0.953122 7.68164 1.18359 7.28125 1.60547C6.88086 2.02539 6.67578 2.57617 6.70508 3.15625L6.82227 5.55664L2.13672 5.55664C1.90039 5.55664 1.66992 5.61914 1.4668 5.73828C0.677734 6.19726 0.187501 7.0293 0.187501 7.90625C0.187501 8.45898 0.369141 8.99023 0.697266 9.42383ZM14.4062 10.0937L14.4062 15.6406L12.8242 15.6406L12.8242 10.0937L14.4062 10.0937ZM2.15625 6.96094L8.29688 6.96094L8.10937 3.08594C8.09766 2.85351 8.20117 2.63476 8.39453 2.49023C8.51367 2.40234 8.66016 2.35742 8.80664 2.35937C8.99378 2.36119 9.17529 2.42366 9.32391 2.53741C9.47253 2.65116 9.58023 2.81005 9.63086 2.99023L11.5742 10.0312L11.5742 15.6406L3.46094 15.6406C3.26571 15.5531 3.09992 15.4111 2.9835 15.2316C2.86707 15.0521 2.80498 14.8428 2.80469 14.6289C2.80469 14.4395 2.84961 14.2598 2.93945 14.0957L3.21094 13.5996L2.7832 13.2285C2.66281 13.1242 2.5663 12.9953 2.50024 12.8503C2.43418 12.7054 2.40013 12.5479 2.40039 12.3887C2.40039 12.1992 2.44531 12.0195 2.53516 11.8555L2.80664 11.3594L2.37891 10.9883C2.25851 10.884 2.162 10.755 2.09594 10.6101C2.02988 10.4652 1.99583 10.3077 1.99609 10.1484C1.99609 9.95898 2.04102 9.7793 2.13086 9.61523L2.4043 9.11719L1.97656 8.74609C1.85617 8.64182 1.75966 8.51283 1.6936 8.3679C1.62754 8.22298 1.59348 8.06552 1.59375 7.90625C1.59375 7.5332 1.80859 7.17383 2.15625 6.96094Z" fill="#C5C5C5"/>
</svg>
