<svg width="22" height="22" viewBox="0 0 22 22" fill="none" xmlns="http://www.w3.org/2000/svg">
<path d="M18.6992 3.29998V1.09998H2.19922V3.29998H18.6992ZM18.6992 7.69998V5.49998H2.19922V7.69998H18.6992ZM6.59922 12.1V9.89997H2.19922V12.1H6.59922ZM8.79922 9.89997H18.6992C19.3042 9.89997 19.7992 10.395 19.7992 11V19.8C19.7992 20.405 19.3042 20.9 18.6992 20.9H8.79922C8.19422 20.9 7.69922 20.405 7.69922 19.8V11C7.69922 10.395 8.19422 9.89997 8.79922 9.89997ZM12.0992 17.6L15.7622 15.4L12.0992 13.2V17.6ZM6.59922 16.5V14.3H2.19922V16.5H6.59922ZM6.59922 20.9V18.7H2.19922V20.9H6.59922Z" fill="#A33D32"/>
</svg>
