<svg width="21" height="20" viewBox="0 0 21 20" fill="none" xmlns="http://www.w3.org/2000/svg">
<path d="M12.5833 4.24992V2.16659H8.41665V4.24992H12.5833ZM2.16665 6.33325V17.7916H18.8333V6.33325H2.16665ZM18.8333 4.24992C19.9896 4.24992 20.9166 5.177 20.9166 6.33325V17.7916C20.9166 18.9478 19.9896 19.8749 18.8333 19.8749H2.16665C1.0104 19.8749 0.083313 18.9478 0.083313 17.7916L0.0937296 6.33325C0.0937296 5.177 1.0104 4.24992 2.16665 4.24992H6.33331V2.16659C6.33331 1.01034 7.2604 0.083252 8.41665 0.083252H12.5833C13.7396 0.083252 14.6666 1.01034 14.6666 2.16659V4.24992H18.8333Z" fill="#A33D32"/>
</svg>
