<svg width="66" height="75" viewBox="0 0 66 75" fill="none" xmlns="http://www.w3.org/2000/svg">
<path d="M64.25 35.3349C65.9167 36.2972 65.9167 38.7028 64.25 39.6651L5 73.8731C3.33333 74.8353 1.25 73.6325 1.25 71.708L1.25001 3.29199C1.25001 1.36749 3.33334 0.16468 5.00001 1.12693L64.25 35.3349Z" stroke="white"/>
</svg>
