<svg width="17" height="21" viewBox="0 0 17 21" fill="none" xmlns="http://www.w3.org/2000/svg">
<path d="M5.1182 -7.6791e-06C4.93108 0.0355812 4.76256 0.136155 4.6424 0.283947C4.52225 0.43174 4.45819 0.617241 4.46154 0.807685V1.61538H1.5587C0.912542 1.61538 0.42308 2.10484 0.42308 2.75099V19.7885C0.42308 20.5154 0.912542 21 1.5587 21H15.3654C16.0115 21 16.501 20.5105 16.501 19.8644V2.75099C16.5818 2.10484 16.0875 1.61538 15.4413 1.61538H12.5385V0.807685C12.5385 0.593471 12.4534 0.388032 12.3019 0.23656C12.1504 0.0850882 11.945 -7.6791e-06 11.7308 -7.6791e-06H5.26923C5.24394 -0.0011978 5.21861 -0.0011978 5.19331 -7.6791e-06C5.16802 -0.0011978 5.14268 -0.0011978 5.11739 -7.6791e-06H5.1182ZM6.07693 1.61538H10.9231V3.23076H6.07693V1.61538ZM2.03847 3.23076H4.46154V4.03845C4.46154 4.25267 4.54664 4.45811 4.69811 4.60958C4.84958 4.76105 5.05502 4.84615 5.26923 4.84615H11.7308C11.945 4.84615 12.1504 4.76105 12.3019 4.60958C12.4534 4.45811 12.5385 4.25267 12.5385 4.03845V3.23076H14.9615V19.3846H2.03847V3.23076ZM3.65385 7.26922V10.5H6.88462V7.26922H3.65385ZM4.46154 8.07692H6.07693V9.6923H4.46154V8.07692ZM8.5 8.07692V9.6923H13.3462V8.07692H8.5ZM3.65385 12.1154V15.3461H6.88462V12.1154H3.65385ZM8.5 12.9231V14.5385H13.3462V12.9231H8.5Z" fill="#A33D32"/>
</svg>
