{
    "/adm/js/admin.js": "/adm/js/admin.js?id=af4b0fd6eb145a4a365e",
    "/js/app.js": "/js/app.js?id=60be1acd0a78bfa84913",
    "/css/app.css": "/css/app.css?id=f945e3254f417ccc26d6",
    "/node_modules/tinymce/jquery.tinymce.js": "/node_modules/tinymce/jquery.tinymce.js?id=03ec7cf962cf39bbffd0",
    "/node_modules/tinymce/jquery.tinymce.min.js": "/node_modules/tinymce/jquery.tinymce.min.js?id=03ec7cf962cf39bbffd0",
    "/node_modules/tinymce/tinymce.js": "/node_modules/tinymce/tinymce.js?id=88cd26050a466d7f3135",
    "/node_modules/tinymce/tinymce.min.js": "/node_modules/tinymce/tinymce.min.js?id=14cee27f3b3ce468b0dc"
}
